21

5
Debra
Terry
Steven
Tiffany
William
4 2 1 5 3
1 2 4 3 5
4 2 5 3 1
2 4 3 5 1
3 5 1 2 4
1 2 5 3 4
2 4 1 3 5
2 4 5 3 1

2
Myrna
Jean
1 2
2 1
2 1
2 1
1 2
2 1

3
Paula
Phillip
Cindy
2 1 3
2 3 1
1 2 3
2 3 1
3 2 1
3 1 2
1 3 2

5
Margaret
Donald
Glen
Lisbeth
Bobby
1 4 3 2 5
3 1 4 5 2
4 3 1 2 5
2 3 4 5 1
3 1 4 2 5

3
Julio
Brian
Jeffrey
2 3 1
1 2 3
1 3 2
2 3 1
2 3 1
3 2 1
2 1 3
3 2 1
3 2 1

2
Kenneth
Victor
1 2
1 2
1 2
1 2
1 2
1 2
2 1

4
Andrew
Myrtle
Jose
Milton
1 2 3 4
3 1 2 4
3 2 4 1
2 4 1 3
4 3 1 2
2 1 4 3
1 2 4 3
4 3 1 2
3 4 1 2
4 2 1 3
1 4 3 2

2
Ernest
Patricia
2 1
1 2
2 1
1 2
1 2
1 2
2 1
1 2

2
Bettie
Shannon
1 2
1 2
1 2
2 1

3
Anthony
Carl
Kristy
3 1 2
2 1 3
1 3 2
2 3 1
2 3 1
2 1 3
1 2 3
2 1 3
2 1 3
2 1 3

3
Sandra
Anibal
Katherine
1 2 3
2 1 3
2 1 3
1 2 3

5
Dorothy
Sharron
Ha
Joseph
Andrew
1 4 3 5 2
2 3 5 4 1
2 1 3 5 4
4 5 2 3 1
3 4 1 5 2
1 3 2 5 4
2 5 4 3 1
4 3 5 1 2
4 3 2 1 5
4 2 3 1 5

4
Carolyn
Elsie
Ruth
Daisy
3 2 4 1
4 2 3 1
4 1 3 2
1 4 2 3
4 3 2 1
4 1 3 2
4 3 2 1
1 4 2 3

5
William
Rose
Amy
Jennifer
Stephen
2 4 5 1 3
4 5 2 3 1
5 2 4 3 1
2 1 5 3 4
3 2 1 4 5
5 2 3 1 4
5 1 4 3 2
2 3 4 5 1
2 1 3 4 5
2 4 3 5 1

4
Robert
Kelly
Joseph
George
3 4 1 2
4 2 3 1
4 3 1 2
2 4 1 3
1 2 4 3

5
Constance
Charles
Helen
Miguel
Paris
5 1 2 4 3
2 3 4 5 1
2 3 5 1 4
1 5 3 4 2
4 1 2 5 3
1 4 2 3 5
4 3 5 1 2

2
Jeanette
Michelle
1 2
2 1
2 1
1 2
2 1
1 2
2 1
1 2

3
Carlene
Clayton
Elizabeth
3 2 1
1 3 2
3 1 2
2 1 3
1 2 3
2 3 1
2 3 1
1 2 3
1 2 3
3 2 1
3 1 2

2
Richard
Brenda
2 1
1 2
1 2
2 1
2 1
1 2
1 2
2 1
2 1
2 1
1 2

2
Ollie
Willetta
1 2
1 2
1 2
2 1
2 1
2 1

5
Elizabeth
Robert
Nancy
Sonia
Sharon
2 3 4 5 1
2 4 1 3 5
2 4 3 5 1
5 2 1 3 4
